module gitlab.wikimedia.org/dduvall/masse

go 1.23.5

require (
	cuelang.org/go v0.13.0-0.dev.0.20250204180852-7d7abffdb178
	github.com/containerd/containerd v1.7.23
	github.com/davecgh/go-spew v1.1.1
	github.com/moby/buildkit v0.20.0
	github.com/moby/docker-image-spec v1.3.1
	github.com/opencontainers/go-digest v1.0.0
	github.com/opencontainers/image-spec v1.1.0
	github.com/pkg/errors v0.9.1
	github.com/stretchr/testify v1.10.0
	github.com/urfave/cli/v2 v2.27.5
	gitlab.wikimedia.org/repos/releng/llbtest v0.0.1
)

require (
	cuelabs.dev/go/oci/ociregistry v0.0.0-20241125120445-2c00c104c6e1 // indirect
	github.com/AdaLogics/go-fuzz-headers v0.0.0-20240806141605-e8a1dd7889d6 // indirect
	github.com/Microsoft/hcsshim v0.12.9 // indirect
	github.com/cockroachdb/apd/v3 v3.2.1 // indirect
	github.com/containerd/containerd/v2 v2.0.2 // indirect
	github.com/containerd/errdefs v1.0.0 // indirect
	github.com/containerd/log v0.1.0 // indirect
	github.com/containerd/platforms v1.0.0-rc.1 // indirect
	github.com/containerd/ttrpc v1.2.7 // indirect
	github.com/containerd/typeurl/v2 v2.2.3 // indirect
	github.com/cpuguy83/go-md2man/v2 v2.0.5 // indirect
	github.com/distribution/reference v0.6.0 // indirect
	github.com/docker/go-units v0.5.0 // indirect
	github.com/emicklei/proto v1.14.0 // indirect
	github.com/felixge/httpsnoop v1.0.4 // indirect
	github.com/go-logr/logr v1.4.2 // indirect
	github.com/go-logr/stdr v1.2.2 // indirect
	github.com/gogo/protobuf v1.3.2 // indirect
	github.com/golang/protobuf v1.5.4 // indirect
	github.com/google/shlex v0.0.0-20191202100458-e7afc7fbc510 // indirect
	github.com/google/uuid v1.6.0 // indirect
	github.com/hashicorp/errwrap v1.1.0 // indirect
	github.com/hashicorp/go-multierror v1.1.1 // indirect
	github.com/in-toto/in-toto-golang v0.5.0 // indirect
	github.com/klauspost/compress v1.17.11 // indirect
	github.com/mitchellh/go-wordwrap v1.0.1 // indirect
	github.com/moby/locker v1.0.1 // indirect
	github.com/moby/patternmatcher v0.6.0 // indirect
	github.com/moby/sys/signal v0.7.1 // indirect
	github.com/pelletier/go-toml/v2 v2.2.3 // indirect
	github.com/planetscale/vtprotobuf v0.6.1-0.20240319094008-0393e58bdf10 // indirect
	github.com/pmezard/go-difflib v1.0.0 // indirect
	github.com/protocolbuffers/txtpbfmt v0.0.0-20250129171521-feedd8250727 // indirect
	github.com/rogpeppe/go-internal v1.13.2-0.20241226121412-a5dc8ff20d0a // indirect
	github.com/russross/blackfriday/v2 v2.1.0 // indirect
	github.com/secure-systems-lab/go-securesystemslib v0.4.0 // indirect
	github.com/shibumi/go-pathspec v1.3.0 // indirect
	github.com/sirupsen/logrus v1.9.3 // indirect
	github.com/tonistiigi/fsutil v0.0.0-20250227023350-13604323a291 // indirect
	github.com/tonistiigi/go-csvvalue v0.0.0-20240710180619-ddb21b71c0b4 // indirect
	github.com/xrash/smetrics v0.0.0-20240521201337-686a1a2994c1 // indirect
	go.opentelemetry.io/contrib/instrumentation/google.golang.org/grpc/otelgrpc v0.56.0 // indirect
	go.opentelemetry.io/contrib/instrumentation/net/http/httptrace/otelhttptrace v0.56.0 // indirect
	go.opentelemetry.io/contrib/instrumentation/net/http/otelhttp v0.56.0 // indirect
	go.opentelemetry.io/otel v1.31.0 // indirect
	go.opentelemetry.io/otel/metric v1.31.0 // indirect
	go.opentelemetry.io/otel/sdk v1.31.0 // indirect
	go.opentelemetry.io/otel/trace v1.31.0 // indirect
	golang.org/x/crypto v0.32.0 // indirect
	golang.org/x/mod v0.22.0 // indirect
	golang.org/x/net v0.34.0 // indirect
	golang.org/x/oauth2 v0.25.0 // indirect
	golang.org/x/sync v0.10.0 // indirect
	golang.org/x/sys v0.29.0 // indirect
	golang.org/x/text v0.21.0 // indirect
	google.golang.org/genproto/googleapis/rpc v0.0.0-20241021214115-324edc3d5d38 // indirect
	google.golang.org/grpc v1.69.4 // indirect
	google.golang.org/protobuf v1.35.2 // indirect
	gopkg.in/yaml.v3 v3.0.1 // indirect
)
